{
  "extends": "tslint-config-standard",
  "rules": {
    "no-require-imports": false,
    "semicolon": false,
    "no-console": false,
    "no-duplicate-imports": false,
    "no-floating-promises": false,
    "strict-type-predicates": false
  }
}